{"items":[{"id":41468,"tokenId":"999","collectionName":"Bored Ape Yacht Club","name":"Bored Ape #999","description":"A unique Bored Ape NFT, one of the most prestigious collections on the market. Rarity: common","imagePath":"/bored_ape_nft/bored_ape_227.png","price":"30.07","forSale":true,"ownerId":2,"rarity":"common","attributes":{"rarity":"common","series":"BAYC","traits":[{"value":"common","trait_type":"Rarity"},{"value":"BAYC","trait_type":"Series"},{"value":"999","trait_type":"Edition"}],"edition":"999"},"owner":{"id":2,"username":"Unknown"}},{"id":21289,"tokenId":"47","collectionName":"Bored Ape Yacht Club","name":"Bored Ape #47","description":"Bored Ape Yacht Club NFT #47. Редкость: common. Уникальный цифровой актив на блокчейне.","imagePath":"/bored_ape_nft/bored_ape_48.png","price":"30.07","forSale":true,"ownerId":1,"rarity":"common","attributes":{"luck":52,"power":45,"wisdom":56,"agility":39},"owner":{"id":1,"username":"Unknown"}},{"id":21561,"tokenId":"319","collectionName":"Bored Ape Yacht Club","name":"Bored Ape #319","description":"Bored Ape Yacht Club NFT #319. Редкость: common. Уникальный цифровой актив на блокчейне.","imagePath":"/bored_ape_nft/bored_ape_320.png","price":"30.10","forSale":true,"ownerId":1,"rarity":"common","attributes":{"luck":48,"power":39,"wisdom":50,"agility":43},"owner":{"id":1,"username":"Unknown"}},{"id":21253,"tokenId":"11","collectionName":"Bored Ape Yacht Club","name":"Bored Ape #11","description":"Bored Ape Yacht Club NFT #11. Редкость: common. Уникальный цифровой актив на блокчейне.","imagePath":"/bored_ape_nft/bored_ape_12.png","price":"30.15","forSale":true,"ownerId":1,"rarity":"common","attributes":{"luck":45,"power":43,"wisdom":58,"agility":36},"owner":{"id":1,"username":"Unknown"}},{"id":21991,"tokenId":"749","collectionName":"Bored Ape Yacht Club","name":"Bored Ape #749","description":"Bored Ape Yacht Club NFT #749. Редкость: common. Уникальный цифровой актив на блокчейне.","imagePath":"/bored_ape_nft/bored_ape_750.png","price":"30.21","forSale":true,"ownerId":1,"rarity":"common","attributes":{"luck":50,"power":41,"wisdom":58,"agility":36},"owner":{"id":1,"username":"Unknown"}},{"id":21689,"tokenId":"447","collectionName":"Bored Ape Yacht Club","name":"Bored Ape #447","description":"Bored Ape Yacht Club NFT #447. Редкость: common. Уникальный цифровой актив на блокчейне.","imagePath":"/bored_ape_nft/bored_ape_448.png","price":"30.22","forSale":true,"ownerId":1,"rarity":"common","attributes":{"luck":51,"power":47,"wisdom":64,"agility":47},"owner":{"id":1,"username":"Unknown"}},{"id":21566,"tokenId":"324","collectionName":"Bored Ape Yacht Club","name":"Bored Ape #324","description":"Bored Ape Yacht Club NFT #324. Редкость: common. Уникальный цифровой актив на блокчейне.","imagePath":"/bored_ape_nft/bored_ape_325.png","price":"30.27","forSale":true,"ownerId":1,"rarity":"common","attributes":{"luck":54,"power":40,"wisdom":57,"agility":40},"owner":{"id":1,"username":"Unknown"}},{"id":41490,"tokenId":"1021","collectionName":"Bored Ape Yacht Club","name":"Bored Ape #1021","description":"A unique Bored Ape NFT, one of the most prestigious collections on the market. Rarity: common","imagePath":"/bored_ape_nft/bored_ape_249.png","price":"30.39","forSale":true,"ownerId":2,"rarity":"common","attributes":{"rarity":"common","series":"BAYC","traits":[{"value":"common","trait_type":"Rarity"},{"value":"BAYC","trait_type":"Series"},{"value":"1021","trait_type":"Edition"}],"edition":"1021"},"owner":{"id":2,"username":"Unknown"}},{"id":41624,"tokenId":"1155","collectionName":"Bored Ape Yacht Club","name":"Bored Ape #1155","description":"A unique Bored Ape NFT, one of the most prestigious collections on the market. Rarity: common","imagePath":"/bored_ape_nft/bored_ape_383.png","price":"30.42","forSale":true,"ownerId":2,"rarity":"common","attributes":{"rarity":"common","series":"BAYC","traits":[{"value":"common","trait_type":"Rarity"},{"value":"BAYC","trait_type":"Series"},{"value":"1155","trait_type":"Edition"}],"edition":"1155"},"owner":{"id":2,"username":"Unknown"}},{"id":21665,"tokenId":"423","collectionName":"Bored Ape Yacht Club","name":"Bored Ape #423","description":"Bored Ape Yacht Club NFT #423. Редкость: common. Уникальный цифровой актив на блокчейне.","imagePath":"/bored_ape_nft/bored_ape_424.png","price":"30.44","forSale":true,"ownerId":1,"rarity":"common","attributes":{"luck":47,"power":47,"wisdom":59,"agility":50},"owner":{"id":1,"username":"Unknown"}},{"id":21397,"tokenId":"155","collectionName":"Bored Ape Yacht Club","name":"Bored Ape #155","description":"Bored Ape Yacht Club NFT #155. Редкость: common. Уникальный цифровой актив на блокчейне.","imagePath":"/bored_ape_nft/bored_ape_156.png","price":"30.57","forSale":true,"ownerId":1,"rarity":"common","attributes":{"luck":47,"power":36,"wisdom":51,"agility":36},"owner":{"id":1,"username":"Unknown"}},{"id":41371,"tokenId":"902","collectionName":"Bored Ape Yacht Club","name":"Bored Ape #902","description":"A unique Bored Ape NFT, one of the most prestigious collections on the market. Rarity: common","imagePath":"/bored_ape_nft/bored_ape_130.png","price":"30.71","forSale":true,"ownerId":2,"rarity":"common","attributes":{"rarity":"common","series":"BAYC","traits":[{"value":"common","trait_type":"Rarity"},{"value":"BAYC","trait_type":"Series"},{"value":"902","trait_type":"Edition"}],"edition":"902"},"owner":{"id":2,"username":"Unknown"}},{"id":21497,"tokenId":"255","collectionName":"Bored Ape Yacht Club","name":"Bored Ape #255","description":"Bored Ape Yacht Club NFT #255. Редкость: common. Уникальный цифровой актив на блокчейне.","imagePath":"/bored_ape_nft/bored_ape_256.png","price":"30.73","forSale":true,"ownerId":1,"rarity":"common","attributes":{"luck":51,"power":37,"wisdom":54,"agility":40},"owner":{"id":1,"username":"Unknown"}},{"id":21761,"tokenId":"519","collectionName":"Bored Ape Yacht Club","name":"Bored Ape #519","description":"Bored Ape Yacht Club NFT #519. Редкость: common. Уникальный цифровой актив на блокчейне.","imagePath":"/bored_ape_nft/bored_ape_520.png","price":"30.74","forSale":true,"ownerId":1,"rarity":"common","attributes":{"luck":45,"power":37,"wisdom":56,"agility":38},"owner":{"id":1,"username":"Unknown"}},{"id":21642,"tokenId":"400","collectionName":"Bored Ape Yacht Club","name":"Bored Ape #400","description":"Bored Ape Yacht Club NFT #400. Редкость: common. Уникальный цифровой актив на блокчейне.","imagePath":"/bored_ape_nft/bored_ape_401.png","price":"30.81","forSale":true,"ownerId":1,"rarity":"common","attributes":{"luck":53,"power":48,"wisdom":64,"agility":45},"owner":{"id":1,"username":"Unknown"}},{"id":21398,"tokenId":"156","collectionName":"Bored Ape Yacht Club","name":"Bored Ape #156","description":"Bored Ape Yacht Club NFT #156. Редкость: common. Уникальный цифровой актив на блокчейне.","imagePath":"/bored_ape_nft/bored_ape_157.png","price":"30.84","forSale":true,"ownerId":1,"rarity":"common","attributes":{"luck":42,"power":37,"wisdom":58,"agility":37},"owner":{"id":1,"username":"Unknown"}},{"id":21379,"tokenId":"137","collectionName":"Bored Ape Yacht Club","name":"Bored Ape #137","description":"Bored Ape Yacht Club NFT #137. Редкость: common. Уникальный цифровой актив на блокчейне.","imagePath":"/bored_ape_nft/bored_ape_138.png","price":"30.86","forSale":true,"ownerId":1,"rarity":"common","attributes":{"luck":47,"power":41,"wisdom":63,"agility":45},"owner":{"id":1,"username":"Unknown"}},{"id":21270,"tokenId":"28","collectionName":"Bored Ape Yacht Club","name":"Bored Ape #28","description":"Bored Ape Yacht Club NFT #28. Редкость: common. Уникальный цифровой актив на блокчейне.","imagePath":"/bored_ape_nft/bored_ape_29.png","price":"30.90","forSale":true,"ownerId":1,"rarity":"common","attributes":{"luck":48,"power":45,"wisdom":56,"agility":42},"owner":{"id":1,"username":"Unknown"}},{"id":41563,"tokenId":"1094","collectionName":"Bored Ape Yacht Club","name":"Bored Ape #1094","description":"A unique Bored Ape NFT, one of the most prestigious collections on the market. Rarity: common","imagePath":"/bored_ape_nft/bored_ape_322.png","price":"30.94","forSale":true,"ownerId":2,"rarity":"common","attributes":{"rarity":"common","series":"BAYC","traits":[{"value":"common","trait_type":"Rarity"},{"value":"BAYC","trait_type":"Series"},{"value":"1094","trait_type":"Edition"}],"edition":"1094"},"owner":{"id":2,"username":"Unknown"}},{"id":41423,"tokenId":"954","collectionName":"Bored Ape Yacht Club","name":"Bored Ape #954","description":"A unique Bored Ape NFT, one of the most prestigious collections on the market. Rarity: common","imagePath":"/bored_ape_nft/bored_ape_182.png","price":"30.94","forSale":true,"ownerId":2,"rarity":"common","attributes":{"rarity":"common","series":"BAYC","traits":[{"value":"common","trait_type":"Rarity"},{"value":"BAYC","trait_type":"Series"},{"value":"954","trait_type":"Edition"}],"edition":"954"},"owner":{"id":2,"username":"Unknown"}},{"id":41250,"tokenId":"781","collectionName":"Bored Ape Yacht Club","name":"Bored Ape #781","description":"A unique Bored Ape NFT, one of the most prestigious collections on the market. Rarity: common","imagePath":"/bored_ape_nft/bored_ape_9.png","price":"31.03","forSale":true,"ownerId":2,"rarity":"common","attributes":{"rarity":"common","series":"BAYC","traits":[{"value":"common","trait_type":"Rarity"},{"value":"BAYC","trait_type":"Series"},{"value":"781","trait_type":"Edition"}],"edition":"781"},"owner":{"id":2,"username":"Unknown"}},{"id":21701,"tokenId":"459","collectionName":"Bored Ape Yacht Club","name":"Bored Ape #459","description":"Bored Ape Yacht Club NFT #459. Редкость: common. Уникальный цифровой актив на блокчейне.","imagePath":"/bored_ape_nft/bored_ape_460.png","price":"31.09","forSale":true,"ownerId":1,"rarity":"common","attributes":{"luck":50,"power":48,"wisdom":64,"agility":52},"owner":{"id":1,"username":"Unknown"}},{"id":21482,"tokenId":"240","collectionName":"Bored Ape Yacht Club","name":"Bored Ape #240","description":"Bored Ape Yacht Club NFT #240. Редкость: common. Уникальный цифровой актив на блокчейне.","imagePath":"/bored_ape_nft/bored_ape_241.png","price":"31.09","forSale":true,"ownerId":1,"rarity":"common","attributes":{"luck":49,"power":51,"wisdom":65,"agility":52},"owner":{"id":1,"username":"Unknown"}},{"id":21266,"tokenId":"24","collectionName":"Bored Ape Yacht Club","name":"Bored Ape #24","description":"Bored Ape Yacht Club NFT #24. Редкость: common. Уникальный цифровой актив на блокчейне.","imagePath":"/bored_ape_nft/bored_ape_25.png","price":"31.22","forSale":true,"ownerId":1,"rarity":"common","attributes":{"luck":52,"power":43,"wisdom":62,"agility":38},"owner":{"id":1,"username":"Unknown"}},{"id":21596,"tokenId":"354","collectionName":"Bored Ape Yacht Club","name":"Bored Ape #354","description":"Bored Ape Yacht Club NFT #354. Редкость: common. Уникальный цифровой актив на блокчейне.","imagePath":"/bored_ape_nft/bored_ape_355.png","price":"31.25","forSale":true,"ownerId":1,"rarity":"common","attributes":{"luck":42,"power":39,"wisdom":61,"agility":37},"owner":{"id":1,"username":"Unknown"}},{"id":41600,"tokenId":"1131","collectionName":"Bored Ape Yacht Club","name":"Bored Ape #1131","description":"A unique Bored Ape NFT, one of the most prestigious collections on the market. Rarity: common","imagePath":"/bored_ape_nft/bored_ape_359.png","price":"31.27","forSale":true,"ownerId":2,"rarity":"common","attributes":{"rarity":"common","series":"BAYC","traits":[{"value":"common","trait_type":"Rarity"},{"value":"BAYC","trait_type":"Series"},{"value":"1131","trait_type":"Edition"}],"edition":"1131"},"owner":{"id":2,"username":"Unknown"}},{"id":21749,"tokenId":"507","collectionName":"Bored Ape Yacht Club","name":"Bored Ape #507","description":"Bored Ape Yacht Club NFT #507. Редкость: common. Уникальный цифровой актив на блокчейне.","imagePath":"/bored_ape_nft/bored_ape_508.png","price":"31.28","forSale":true,"ownerId":1,"rarity":"common","attributes":{"luck":47,"power":42,"wisdom":53,"agility":41},"owner":{"id":1,"username":"Unknown"}},{"id":41623,"tokenId":"1154","collectionName":"Bored Ape Yacht Club","name":"Bored Ape #1154","description":"A unique Bored Ape NFT, one of the most prestigious collections on the market. Rarity: common","imagePath":"/bored_ape_nft/bored_ape_382.png","price":"31.34","forSale":true,"ownerId":2,"rarity":"common","attributes":{"rarity":"common","series":"BAYC","traits":[{"value":"common","trait_type":"Rarity"},{"value":"BAYC","trait_type":"Series"},{"value":"1154","trait_type":"Edition"}],"edition":"1154"},"owner":{"id":2,"username":"Unknown"}},{"id":21989,"tokenId":"747","collectionName":"Bored Ape Yacht Club","name":"Bored Ape #747","description":"Bored Ape Yacht Club NFT #747. Редкость: common. Уникальный цифровой актив на блокчейне.","imagePath":"/bored_ape_nft/bored_ape_748.png","price":"31.35","forSale":true,"ownerId":1,"rarity":"common","attributes":{"luck":50,"power":47,"wisdom":65,"agility":49},"owner":{"id":1,"username":"Unknown"}},{"id":41604,"tokenId":"1135","collectionName":"Bored Ape Yacht Club","name":"Bored Ape #1135","description":"A unique Bored Ape NFT, one of the most prestigious collections on the market. Rarity: common","imagePath":"/bored_ape_nft/bored_ape_363.png","price":"31.35","forSale":true,"ownerId":2,"rarity":"common","attributes":{"rarity":"common","series":"BAYC","traits":[{"value":"common","trait_type":"Rarity"},{"value":"BAYC","trait_type":"Series"},{"value":"1135","trait_type":"Edition"}],"edition":"1135"},"owner":{"id":2,"username":"Unknown"}},{"id":21283,"tokenId":"41","collectionName":"Bored Ape Yacht Club","name":"Bored Ape #41","description":"Bored Ape Yacht Club NFT #41. Редкость: common. Уникальный цифровой актив на блокчейне.","imagePath":"/bored_ape_nft/bored_ape_42.png","price":"31.36","forSale":true,"ownerId":1,"rarity":"common","attributes":{"luck":56,"power":48,"wisdom":68,"agility":53},"owner":{"id":1,"username":"Unknown"}},{"id":41682,"tokenId":"1213","collectionName":"Bored Ape Yacht Club","name":"Bored Ape #1213","description":"A unique Bored Ape NFT, one of the most prestigious collections on the market. Rarity: common","imagePath":"/bored_ape_nft/bored_ape_441.png","price":"31.38","forSale":true,"ownerId":2,"rarity":"common","attributes":{"rarity":"common","series":"BAYC","traits":[{"value":"common","trait_type":"Rarity"},{"value":"BAYC","trait_type":"Series"},{"value":"1213","trait_type":"Edition"}],"edition":"1213"},"owner":{"id":2,"username":"Unknown"}},{"id":21369,"tokenId":"127","collectionName":"Bored Ape Yacht Club","name":"Bored Ape #127","description":"Bored Ape Yacht Club NFT #127. Редкость: common. Уникальный цифровой актив на блокчейне.","imagePath":"/bored_ape_nft/bored_ape_128.png","price":"31.56","forSale":true,"ownerId":1,"rarity":"common","attributes":{"luck":54,"power":49,"wisdom":59,"agility":42},"owner":{"id":1,"username":"Unknown"}},{"id":21745,"tokenId":"503","collectionName":"Bored Ape Yacht Club","name":"Bored Ape #503","description":"Bored Ape Yacht Club NFT #503. Редкость: common. Уникальный цифровой актив на блокчейне.","imagePath":"/bored_ape_nft/bored_ape_504.png","price":"31.59","forSale":true,"ownerId":1,"rarity":"common","attributes":{"luck":53,"power":50,"wisdom":67,"agility":52},"owner":{"id":1,"username":"Unknown"}},{"id":21958,"tokenId":"716","collectionName":"Bored Ape Yacht Club","name":"Bored Ape #716","description":"Bored Ape Yacht Club NFT #716. Редкость: common. Уникальный цифровой актив на блокчейне.","imagePath":"/bored_ape_nft/bored_ape_717.png","price":"31.62","forSale":true,"ownerId":1,"rarity":"common","attributes":{"luck":51,"power":46,"wisdom":52,"agility":40},"owner":{"id":1,"username":"Unknown"}},{"id":21559,"tokenId":"317","collectionName":"Bored Ape Yacht Club","name":"Bored Ape #317","description":"Bored Ape Yacht Club NFT #317. Редкость: common. Уникальный цифровой актив на блокчейне.","imagePath":"/bored_ape_nft/bored_ape_318.png","price":"31.71","forSale":true,"ownerId":1,"rarity":"common","attributes":{"luck":57,"power":46,"wisdom":63,"agility":51},"owner":{"id":1,"username":"Unknown"}},{"id":21868,"tokenId":"626","collectionName":"Bored Ape Yacht Club","name":"Bored Ape #626","description":"Bored Ape Yacht Club NFT #626. Редкость: common. Уникальный цифровой актив на блокчейне.","imagePath":"/bored_ape_nft/bored_ape_627.png","price":"31.72","forSale":true,"ownerId":1,"rarity":"common","attributes":{"luck":57,"power":49,"wisdom":68,"agility":51},"owner":{"id":1,"username":"Unknown"}},{"id":21995,"tokenId":"753","collectionName":"Bored Ape Yacht Club","name":"Bored Ape #753","description":"Bored Ape Yacht Club NFT #753. Редкость: common. Уникальный цифровой актив на блокчейне.","imagePath":"/bored_ape_nft/bored_ape_754.png","price":"31.74","forSale":true,"ownerId":1,"rarity":"common","attributes":{"luck":47,"power":45,"wisdom":59,"agility":49},"owner":{"id":1,"username":"Unknown"}},{"id":21970,"tokenId":"728","collectionName":"Bored Ape Yacht Club","name":"Bored Ape #728","description":"Bored Ape Yacht Club NFT #728. Редкость: common. Уникальный цифровой актив на блокчейне.","imagePath":"/bored_ape_nft/bored_ape_729.png","price":"31.74","forSale":true,"ownerId":1,"rarity":"common","attributes":{"luck":52,"power":46,"wisdom":53,"agility":45},"owner":{"id":1,"username":"Unknown"}},{"id":21276,"tokenId":"34","collectionName":"Bored Ape Yacht Club","name":"Bored Ape #34","description":"Bored Ape Yacht Club NFT #34. Редкость: common. Уникальный цифровой актив на блокчейне.","imagePath":"/bored_ape_nft/bored_ape_35.png","price":"31.86","forSale":true,"ownerId":1,"rarity":"common","attributes":{"luck":46,"power":37,"wisdom":56,"agility":37},"owner":{"id":1,"username":"Unknown"}},{"id":21743,"tokenId":"501","collectionName":"Bored Ape Yacht Club","name":"Bored Ape #501","description":"Bored Ape Yacht Club NFT #501. Редкость: common. Уникальный цифровой актив на блокчейне.","imagePath":"/bored_ape_nft/bored_ape_502.png","price":"31.92","forSale":true,"ownerId":1,"rarity":"common","attributes":{"luck":55,"power":48,"wisdom":63,"agility":51},"owner":{"id":1,"username":"Unknown"}},{"id":41386,"tokenId":"917","collectionName":"Bored Ape Yacht Club","name":"Bored Ape #917","description":"A unique Bored Ape NFT, one of the most prestigious collections on the market. Rarity: common","imagePath":"/bored_ape_nft/bored_ape_145.png","price":"31.92","forSale":true,"ownerId":2,"rarity":"common","attributes":{"rarity":"common","series":"BAYC","traits":[{"value":"common","trait_type":"Rarity"},{"value":"BAYC","trait_type":"Series"},{"value":"917","trait_type":"Edition"}],"edition":"917"},"owner":{"id":2,"username":"Unknown"}},{"id":21269,"tokenId":"27","collectionName":"Bored Ape Yacht Club","name":"Bored Ape #27","description":"Bored Ape Yacht Club NFT #27. Редкость: common. Уникальный цифровой актив на блокчейне.","imagePath":"/bored_ape_nft/bored_ape_28.png","price":"31.95","forSale":true,"ownerId":1,"rarity":"common","attributes":{"luck":45,"power":50,"wisdom":56,"agility":44},"owner":{"id":1,"username":"Unknown"}},{"id":21664,"tokenId":"422","collectionName":"Bored Ape Yacht Club","name":"Bored Ape #422","description":"Bored Ape Yacht Club NFT #422. Редкость: common. Уникальный цифровой актив на блокчейне.","imagePath":"/bored_ape_nft/bored_ape_423.png","price":"31.98","forSale":true,"ownerId":1,"rarity":"common","attributes":{"luck":48,"power":49,"wisdom":64,"agility":46},"owner":{"id":1,"username":"Unknown"}},{"id":21963,"tokenId":"721","collectionName":"Bored Ape Yacht Club","name":"Bored Ape #721","description":"Bored Ape Yacht Club NFT #721. Редкость: common. Уникальный цифровой актив на блокчейне.","imagePath":"/bored_ape_nft/bored_ape_722.png","price":"31.98","forSale":true,"ownerId":1,"rarity":"common","attributes":{"luck":53,"power":49,"wisdom":63,"agility":43},"owner":{"id":1,"username":"Unknown"}},{"id":41374,"tokenId":"905","collectionName":"Bored Ape Yacht Club","name":"Bored Ape #905","description":"A unique Bored Ape NFT, one of the most prestigious collections on the market. Rarity: common","imagePath":"/bored_ape_nft/bored_ape_133.png","price":"31.99","forSale":true,"ownerId":2,"rarity":"common","attributes":{"rarity":"common","series":"BAYC","traits":[{"value":"common","trait_type":"Rarity"},{"value":"BAYC","trait_type":"Series"},{"value":"905","trait_type":"Edition"}],"edition":"905"},"owner":{"id":2,"username":"Unknown"}},{"id":21773,"tokenId":"531","collectionName":"Bored Ape Yacht Club","name":"Bored Ape #531","description":"Bored Ape Yacht Club NFT #531. Редкость: common. Уникальный цифровой актив на блокчейне.","imagePath":"/bored_ape_nft/bored_ape_532.png","price":"32.08","forSale":true,"ownerId":1,"rarity":"common","attributes":{"luck":48,"power":46,"wisdom":58,"agility":44},"owner":{"id":1,"username":"Unknown"}},{"id":41576,"tokenId":"1107","collectionName":"Bored Ape Yacht Club","name":"Bored Ape #1107","description":"A unique Bored Ape NFT, one of the most prestigious collections on the market. Rarity: common","imagePath":"/bored_ape_nft/bored_ape_335.png","price":"32.1","forSale":true,"ownerId":2,"rarity":"common","attributes":{"rarity":"common","series":"BAYC","traits":[{"value":"common","trait_type":"Rarity"},{"value":"BAYC","trait_type":"Series"},{"value":"1107","trait_type":"Edition"}],"edition":"1107"},"owner":{"id":2,"username":"Unknown"}},{"id":21888,"tokenId":"646","collectionName":"Bored Ape Yacht Club","name":"Bored Ape #646","description":"Bored Ape Yacht Club NFT #646. Редкость: common. Уникальный цифровой актив на блокчейне.","imagePath":"/bored_ape_nft/bored_ape_647.png","price":"32.12","forSale":true,"ownerId":1,"rarity":"common","attributes":{"luck":58,"power":47,"wisdom":61,"agility":44},"owner":{"id":1,"username":"Unknown"}},{"id":21678,"tokenId":"436","collectionName":"Bored Ape Yacht Club","name":"Bored Ape #436","description":"Bored Ape Yacht Club NFT #436. Редкость: common. Уникальный цифровой актив на блокчейне.","imagePath":"/bored_ape_nft/bored_ape_437.png","price":"32.15","forSale":true,"ownerId":1,"rarity":"common","attributes":{"luck":51,"power":49,"wisdom":66,"agility":52},"owner":{"id":1,"username":"Unknown"}}],"pagination":{"page":1,"limit":50,"totalItems":1207,"totalPages":25},"filters":{"sortBy":"price","sortOrder":"asc","collection":"bored"}}