{"items":[{"id":31879,"tokenId":"10637","collectionName":"Mutant Ape Yacht Club","name":"Mutant Ape #637","description":"Mutant Ape Yacht Club NFT #637. Редкость: common. Уникальный цифровой актив на блокчейне.","imagePath":"/mutant_ape_nft/mutant_ape_23151.png","price":"45.00","forSale":true,"ownerId":1,"rarity":"common","attributes":{"luck":47,"power":56,"wisdom":32,"agility":47},"owner":{"id":1,"username":"Unknown"}},{"id":31498,"tokenId":"10256","collectionName":"Mutant Ape Yacht Club","name":"Mutant Ape #256","description":"Mutant Ape Yacht Club NFT #256. Редкость: common. Уникальный цифровой актив на блокчейне.","imagePath":"/mutant_ape_nft/mutant_ape_22354.png","price":"45.05","forSale":true,"ownerId":1,"rarity":"common","attributes":{"luck":53,"power":64,"wisdom":39,"agility":46},"owner":{"id":1,"username":"Unknown"}},{"id":31884,"tokenId":"10642","collectionName":"Mutant Ape Yacht Club","name":"Mutant Ape #642","description":"Mutant Ape Yacht Club NFT #642. Редкость: common. Уникальный цифровой актив на блокчейне.","imagePath":"/mutant_ape_nft/mutant_ape_23584.png","price":"45.10","forSale":true,"ownerId":1,"rarity":"common","attributes":{"luck":53,"power":61,"wisdom":40,"agility":47},"owner":{"id":1,"username":"Unknown"}},{"id":31770,"tokenId":"10528","collectionName":"Mutant Ape Yacht Club","name":"Mutant Ape #528","description":"Mutant Ape Yacht Club NFT #528. Редкость: common. Уникальный цифровой актив на блокчейне.","imagePath":"/mutant_ape_nft/mutant_ape_8165.png","price":"45.14","forSale":true,"ownerId":1,"rarity":"common","attributes":{"luck":49,"power":52,"wisdom":34,"agility":50},"owner":{"id":1,"username":"Unknown"}},{"id":31497,"tokenId":"10255","collectionName":"Mutant Ape Yacht Club","name":"Mutant Ape #255","description":"Mutant Ape Yacht Club NFT #255. Редкость: common. Уникальный цифровой актив на блокчейне.","imagePath":"/mutant_ape_nft/mutant_ape_2234.png","price":"45.14","forSale":true,"ownerId":1,"rarity":"common","attributes":{"luck":53,"power":53,"wisdom":35,"agility":53},"owner":{"id":1,"username":"Unknown"}},{"id":32175,"tokenId":"10933","collectionName":"Mutant Ape Yacht Club","name":"Mutant Ape #933","description":"Mutant Ape Yacht Club NFT #933. Редкость: common. Уникальный цифровой актив на блокчейне.","imagePath":"/mutant_ape_nft/mutant_ape_28937.png","price":"45.15","forSale":true,"ownerId":1,"rarity":"common","attributes":{"luck":55,"power":63,"wisdom":44,"agility":58},"owner":{"id":1,"username":"Unknown"}},{"id":32196,"tokenId":"10954","collectionName":"Mutant Ape Yacht Club","name":"Mutant Ape #954","description":"Mutant Ape Yacht Club NFT #954. Редкость: common. Уникальный цифровой актив на блокчейне.","imagePath":"/mutant_ape_nft/mutant_ape_30433.png","price":"45.16","forSale":true,"ownerId":1,"rarity":"common","attributes":{"luck":56,"power":69,"wisdom":42,"agility":50},"owner":{"id":1,"username":"Unknown"}},{"id":31700,"tokenId":"10458","collectionName":"Mutant Ape Yacht Club","name":"Mutant Ape #458","description":"Mutant Ape Yacht Club NFT #458. Редкость: common. Уникальный цифровой актив на блокчейне.","imagePath":"/mutant_ape_nft/mutant_ape_3744.png","price":"45.16","forSale":true,"ownerId":1,"rarity":"common","attributes":{"luck":56,"power":59,"wisdom":46,"agility":58},"owner":{"id":1,"username":"Unknown"}},{"id":31363,"tokenId":"10121","collectionName":"Mutant Ape Yacht Club","name":"Mutant Ape #121","description":"Mutant Ape Yacht Club NFT #121. Редкость: common. Уникальный цифровой актив на блокчейне.","imagePath":"/mutant_ape_nft/mutant_ape_0.png","price":"45.27","forSale":true,"ownerId":1,"rarity":"common","attributes":{"luck":46,"power":59,"wisdom":39,"agility":49},"owner":{"id":1,"username":"Unknown"}},{"id":31696,"tokenId":"10454","collectionName":"Mutant Ape Yacht Club","name":"Mutant Ape #454","description":"Mutant Ape Yacht Club NFT #454. Редкость: common. Уникальный цифровой актив на блокчейне.","imagePath":"/mutant_ape_nft/mutant_ape_3534.png","price":"45.31","forSale":true,"ownerId":1,"rarity":"common","attributes":{"luck":56,"power":62,"wisdom":39,"agility":47},"owner":{"id":1,"username":"Unknown"}},{"id":32197,"tokenId":"10955","collectionName":"Mutant Ape Yacht Club","name":"Mutant Ape #955","description":"Mutant Ape Yacht Club NFT #955. Редкость: common. Уникальный цифровой актив на блокчейне.","imagePath":"/mutant_ape_nft/mutant_ape_30453.png","price":"45.35","forSale":true,"ownerId":1,"rarity":"common","attributes":{"luck":60,"power":61,"wisdom":42,"agility":53},"owner":{"id":1,"username":"Unknown"}},{"id":32057,"tokenId":"10815","collectionName":"Mutant Ape Yacht Club","name":"Mutant Ape #815","description":"Mutant Ape Yacht Club NFT #815. Редкость: common. Уникальный цифровой актив на блокчейне.","imagePath":"/mutant_ape_nft/mutant_ape_22664.png","price":"45.37","forSale":true,"ownerId":1,"rarity":"common","attributes":{"luck":57,"power":52,"wisdom":33,"agility":52},"owner":{"id":1,"username":"Unknown"}},{"id":31978,"tokenId":"10736","collectionName":"Mutant Ape Yacht Club","name":"Mutant Ape #736","description":"Mutant Ape Yacht Club NFT #736. Редкость: common. Уникальный цифровой актив на блокчейне.","imagePath":"/mutant_ape_nft/mutant_ape_28410.png","price":"45.48","forSale":true,"ownerId":1,"rarity":"common","attributes":{"luck":49,"power":58,"wisdom":33,"agility":46},"owner":{"id":1,"username":"Unknown"}},{"id":31582,"tokenId":"10340","collectionName":"Mutant Ape Yacht Club","name":"Mutant Ape #340","description":"Mutant Ape Yacht Club NFT #340. Редкость: common. Уникальный цифровой актив на блокчейне.","imagePath":"/mutant_ape_nft/mutant_ape_27223.png","price":"45.50","forSale":true,"ownerId":1,"rarity":"common","attributes":{"luck":53,"power":60,"wisdom":40,"agility":46},"owner":{"id":1,"username":"Unknown"}},{"id":31996,"tokenId":"10754","collectionName":"Mutant Ape Yacht Club","name":"Mutant Ape #754","description":"Mutant Ape Yacht Club NFT #754. Редкость: common. Уникальный цифровой актив на блокчейне.","imagePath":"/mutant_ape_nft/mutant_ape_29194.png","price":"45.51","forSale":true,"ownerId":1,"rarity":"common","attributes":{"luck":55,"power":61,"wisdom":42,"agility":52},"owner":{"id":1,"username":"Unknown"}},{"id":32064,"tokenId":"10822","collectionName":"Mutant Ape Yacht Club","name":"Mutant Ape #822","description":"Mutant Ape Yacht Club NFT #822. Редкость: common. Уникальный цифровой актив на блокчейне.","imagePath":"/mutant_ape_nft/mutant_ape_23311.png","price":"45.52","forSale":true,"ownerId":1,"rarity":"common","attributes":{"luck":59,"power":66,"wisdom":44,"agility":55},"owner":{"id":1,"username":"Unknown"}},{"id":31701,"tokenId":"10459","collectionName":"Mutant Ape Yacht Club","name":"Mutant Ape #459","description":"Mutant Ape Yacht Club NFT #459. Редкость: common. Уникальный цифровой актив на блокчейне.","imagePath":"/mutant_ape_nft/mutant_ape_3800.png","price":"45.53","forSale":true,"ownerId":1,"rarity":"common","attributes":{"luck":55,"power":69,"wisdom":42,"agility":57},"owner":{"id":1,"username":"Unknown"}},{"id":31697,"tokenId":"10455","collectionName":"Mutant Ape Yacht Club","name":"Mutant Ape #455","description":"Mutant Ape Yacht Club NFT #455. Редкость: common. Уникальный цифровой актив на блокчейне.","imagePath":"/mutant_ape_nft/mutant_ape_3573.png","price":"45.59","forSale":true,"ownerId":1,"rarity":"common","attributes":{"luck":51,"power":58,"wisdom":42,"agility":50},"owner":{"id":1,"username":"Unknown"}},{"id":31358,"tokenId":"10116","collectionName":"Mutant Ape Yacht Club","name":"Mutant Ape #116","description":"Mutant Ape Yacht Club NFT #116. Редкость: common. Уникальный цифровой актив на блокчейне.","imagePath":"/mutant_ape_nft/mutant_ape_0707.png","price":"45.59","forSale":true,"ownerId":1,"rarity":"common","attributes":{"luck":62,"power":58,"wisdom":37,"agility":47},"owner":{"id":1,"username":"Unknown"}},{"id":32063,"tokenId":"10821","collectionName":"Mutant Ape Yacht Club","name":"Mutant Ape #821","description":"Mutant Ape Yacht Club NFT #821. Редкость: common. Уникальный цифровой актив на блокчейне.","imagePath":"/mutant_ape_nft/mutant_ape_23254.png","price":"45.69","forSale":true,"ownerId":1,"rarity":"common","attributes":{"luck":58,"power":64,"wisdom":44,"agility":55},"owner":{"id":1,"username":"Unknown"}},{"id":31287,"tokenId":"10045","collectionName":"Mutant Ape Yacht Club","name":"Mutant Ape #45","description":"Mutant Ape Yacht Club NFT #45. Редкость: common. Уникальный цифровой актив на блокчейне.","imagePath":"/mutant_ape_nft/mutant_ape_0230.png","price":"45.75","forSale":true,"ownerId":1,"rarity":"common","attributes":{"luck":54,"power":55,"wisdom":38,"agility":50},"owner":{"id":1,"username":"Unknown"}},{"id":31394,"tokenId":"10152","collectionName":"Mutant Ape Yacht Club","name":"Mutant Ape #152","description":"Mutant Ape Yacht Club NFT #152. Редкость: common. Уникальный цифровой актив на блокчейне.","imagePath":"/mutant_ape_nft/mutant_ape_0575.png","price":"45.83","forSale":true,"ownerId":1,"rarity":"common","attributes":{"luck":55,"power":67,"wisdom":49,"agility":54},"owner":{"id":1,"username":"Unknown"}},{"id":31253,"tokenId":"10011","collectionName":"Mutant Ape Yacht Club","name":"Mutant Ape #11","description":"Mutant Ape Yacht Club NFT #11. Редкость: common. Уникальный цифровой актив на блокчейне.","imagePath":"/mutant_ape_nft/mutant_ape_0490.png","price":"45.83","forSale":true,"ownerId":1,"rarity":"common","attributes":{"luck":53,"power":51,"wisdom":33,"agility":43},"owner":{"id":1,"username":"Unknown"}},{"id":31275,"tokenId":"10033","collectionName":"Mutant Ape Yacht Club","name":"Mutant Ape #33","description":"Mutant Ape Yacht Club NFT #33. Редкость: common. Уникальный цифровой актив на блокчейне.","imagePath":"/mutant_ape_nft/mutant_ape_0588.png","price":"45.86","forSale":true,"ownerId":1,"rarity":"common","attributes":{"luck":52,"power":53,"wisdom":37,"agility":46},"owner":{"id":1,"username":"Unknown"}},{"id":31447,"tokenId":"10205","collectionName":"Mutant Ape Yacht Club","name":"Mutant Ape #205","description":"Mutant Ape Yacht Club NFT #205. Редкость: common. Уникальный цифровой актив на блокчейне.","imagePath":"/mutant_ape_nft/mutant_ape_0230.png","price":"45.86","forSale":true,"ownerId":1,"rarity":"common","attributes":{"luck":62,"power":60,"wisdom":40,"agility":48},"owner":{"id":1,"username":"Unknown"}},{"id":31687,"tokenId":"10445","collectionName":"Mutant Ape Yacht Club","name":"Mutant Ape #445","description":"Mutant Ape Yacht Club NFT #445. Редкость: common. Уникальный цифровой актив на блокчейне.","imagePath":"/mutant_ape_nft/mutant_ape_32607.png","price":"45.90","forSale":true,"ownerId":1,"rarity":"common","attributes":{"luck":60,"power":59,"wisdom":36,"agility":52},"owner":{"id":1,"username":"Unknown"}},{"id":31365,"tokenId":"10123","collectionName":"Mutant Ape Yacht Club","name":"Mutant Ape #123","description":"Mutant Ape Yacht Club NFT #123. Редкость: common. Уникальный цифровой актив на блокчейне.","imagePath":"/mutant_ape_nft/mutant_ape_0141.png","price":"45.90","forSale":true,"ownerId":1,"rarity":"common","attributes":{"luck":51,"power":61,"wisdom":33,"agility":43},"owner":{"id":1,"username":"Unknown"}},{"id":31843,"tokenId":"10601","collectionName":"Mutant Ape Yacht Club","name":"Mutant Ape #601","description":"Mutant Ape Yacht Club NFT #601. Редкость: common. Уникальный цифровой актив на блокчейне.","imagePath":"/mutant_ape_nft/mutant_ape_20688.png","price":"45.93","forSale":true,"ownerId":1,"rarity":"common","attributes":{"luck":57,"power":64,"wisdom":40,"agility":53},"owner":{"id":1,"username":"Unknown"}},{"id":32170,"tokenId":"10928","collectionName":"Mutant Ape Yacht Club","name":"Mutant Ape #928","description":"Mutant Ape Yacht Club NFT #928. Редкость: common. Уникальный цифровой актив на блокчейне.","imagePath":"/mutant_ape_nft/mutant_ape_28725.png","price":"45.96","forSale":true,"ownerId":1,"rarity":"common","attributes":{"luck":52,"power":60,"wisdom":43,"agility":50},"owner":{"id":1,"username":"Unknown"}},{"id":31897,"tokenId":"10655","collectionName":"Mutant Ape Yacht Club","name":"Mutant Ape #655","description":"Mutant Ape Yacht Club NFT #655. Редкость: common. Уникальный цифровой актив на блокчейне.","imagePath":"/mutant_ape_nft/mutant_ape_23993.png","price":"45.98","forSale":true,"ownerId":1,"rarity":"common","attributes":{"luck":54,"power":65,"wisdom":40,"agility":56},"owner":{"id":1,"username":"Unknown"}},{"id":31669,"tokenId":"10427","collectionName":"Mutant Ape Yacht Club","name":"Mutant Ape #427","description":"Mutant Ape Yacht Club NFT #427. Редкость: common. Уникальный цифровой актив на блокчейне.","imagePath":"/mutant_ape_nft/mutant_ape_31871.png","price":"46.01","forSale":true,"ownerId":1,"rarity":"common","attributes":{"luck":56,"power":70,"wisdom":50,"agility":52},"owner":{"id":1,"username":"Unknown"}},{"id":31245,"tokenId":"10003","collectionName":"Mutant Ape Yacht Club","name":"Mutant Ape #3","description":"Mutant Ape Yacht Club NFT #3. Редкость: common. Уникальный цифровой актив на блокчейне.","imagePath":"/mutant_ape_nft/mutant_ape_0141.png","price":"46.02","forSale":true,"ownerId":1,"rarity":"common","attributes":{"luck":55,"power":63,"wisdom":41,"agility":44},"owner":{"id":1,"username":"Unknown"}},{"id":31350,"tokenId":"10108","collectionName":"Mutant Ape Yacht Club","name":"Mutant Ape #108","description":"Mutant Ape Yacht Club NFT #108. Редкость: common. Уникальный цифровой актив на блокчейне.","imagePath":"/mutant_ape_nft/mutant_ape_0271.png","price":"46.03","forSale":true,"ownerId":1,"rarity":"common","attributes":{"luck":62,"power":70,"wisdom":50,"agility":55},"owner":{"id":1,"username":"Unknown"}},{"id":31866,"tokenId":"10624","collectionName":"Mutant Ape Yacht Club","name":"Mutant Ape #624","description":"Mutant Ape Yacht Club NFT #624. Редкость: common. Уникальный цифровой актив на блокчейне.","imagePath":"/mutant_ape_nft/mutant_ape_21981.png","price":"46.09","forSale":true,"ownerId":1,"rarity":"common","attributes":{"luck":54,"power":65,"wisdom":43,"agility":49},"owner":{"id":1,"username":"Unknown"}},{"id":31842,"tokenId":"10600","collectionName":"Mutant Ape Yacht Club","name":"Mutant Ape #600","description":"Mutant Ape Yacht Club NFT #600. Редкость: common. Уникальный цифровой актив на блокчейне.","imagePath":"/mutant_ape_nft/mutant_ape_20656.png","price":"46.10","forSale":true,"ownerId":1,"rarity":"common","attributes":{"luck":54,"power":65,"wisdom":42,"agility":53},"owner":{"id":1,"username":"Unknown"}},{"id":31392,"tokenId":"10150","collectionName":"Mutant Ape Yacht Club","name":"Mutant Ape #150","description":"Mutant Ape Yacht Club NFT #150. Редкость: common. Уникальный цифровой актив на блокчейне.","imagePath":"/mutant_ape_nft/mutant_ape_0425.png","price":"46.11","forSale":true,"ownerId":1,"rarity":"common","attributes":{"luck":57,"power":63,"wisdom":45,"agility":49},"owner":{"id":1,"username":"Unknown"}},{"id":31266,"tokenId":"10024","collectionName":"Mutant Ape Yacht Club","name":"Mutant Ape #24","description":"Mutant Ape Yacht Club NFT #24. Редкость: common. Уникальный цифровой актив на блокчейне.","imagePath":"/mutant_ape_nft/mutant_ape_0212.png","price":"46.21","forSale":true,"ownerId":1,"rarity":"common","attributes":{"luck":50,"power":63,"wisdom":43,"agility":52},"owner":{"id":1,"username":"Unknown"}},{"id":31854,"tokenId":"10612","collectionName":"Mutant Ape Yacht Club","name":"Mutant Ape #612","description":"Mutant Ape Yacht Club NFT #612. Редкость: common. Уникальный цифровой актив на блокчейне.","imagePath":"/mutant_ape_nft/mutant_ape_21394.png","price":"46.22","forSale":true,"ownerId":1,"rarity":"common","attributes":{"luck":60,"power":58,"wisdom":41,"agility":57},"owner":{"id":1,"username":"Unknown"}},{"id":31752,"tokenId":"10510","collectionName":"Mutant Ape Yacht Club","name":"Mutant Ape #510","description":"Mutant Ape Yacht Club NFT #510. Редкость: common. Уникальный цифровой актив на блокчейне.","imagePath":"/mutant_ape_nft/mutant_ape_7183.png","price":"46.23","forSale":true,"ownerId":1,"rarity":"common","attributes":{"luck":59,"power":57,"wisdom":41,"agility":49},"owner":{"id":1,"username":"Unknown"}},{"id":31789,"tokenId":"10547","collectionName":"Mutant Ape Yacht Club","name":"Mutant Ape #547","description":"Mutant Ape Yacht Club NFT #547. Редкость: common. Уникальный цифровой актив на блокчейне.","imagePath":"/mutant_ape_nft/mutant_ape_9388.png","price":"46.26","forSale":true,"ownerId":1,"rarity":"common","attributes":{"luck":59,"power":61,"wisdom":49,"agility":52},"owner":{"id":1,"username":"Unknown"}},{"id":31863,"tokenId":"10621","collectionName":"Mutant Ape Yacht Club","name":"Mutant Ape #621","description":"Mutant Ape Yacht Club NFT #621. Редкость: common. Уникальный цифровой актив на блокчейне.","imagePath":"/mutant_ape_nft/mutant_ape_21773.png","price":"46.28","forSale":true,"ownerId":1,"rarity":"common","attributes":{"luck":57,"power":64,"wisdom":38,"agility":51},"owner":{"id":1,"username":"Unknown"}},{"id":31746,"tokenId":"10504","collectionName":"Mutant Ape Yacht Club","name":"Mutant Ape #504","description":"Mutant Ape Yacht Club NFT #504. Редкость: common. Уникальный цифровой актив на блокчейне.","imagePath":"/mutant_ape_nft/mutant_ape_6840.png","price":"46.30","forSale":true,"ownerId":1,"rarity":"common","attributes":{"luck":63,"power":66,"wisdom":40,"agility":56},"owner":{"id":1,"username":"Unknown"}},{"id":31662,"tokenId":"10420","collectionName":"Mutant Ape Yacht Club","name":"Mutant Ape #420","description":"Mutant Ape Yacht Club NFT #420. Редкость: common. Уникальный цифровой актив на блокчейне.","imagePath":"/mutant_ape_nft/mutant_ape_3151.png","price":"46.34","forSale":true,"ownerId":1,"rarity":"common","attributes":{"luck":52,"power":62,"wisdom":42,"agility":52},"owner":{"id":1,"username":"Unknown"}},{"id":32081,"tokenId":"10839","collectionName":"Mutant Ape Yacht Club","name":"Mutant Ape #839","description":"Mutant Ape Yacht Club NFT #839. Редкость: common. Уникальный цифровой актив на блокчейне.","imagePath":"/mutant_ape_nft/mutant_ape_24086.png","price":"46.45","forSale":true,"ownerId":1,"rarity":"common","attributes":{"luck":56,"power":62,"wisdom":38,"agility":52},"owner":{"id":1,"username":"Unknown"}},{"id":32074,"tokenId":"10832","collectionName":"Mutant Ape Yacht Club","name":"Mutant Ape #832","description":"Mutant Ape Yacht Club NFT #832. Редкость: common. Уникальный цифровой актив на блокчейне.","imagePath":"/mutant_ape_nft/mutant_ape_23774.png","price":"46.48","forSale":true,"ownerId":1,"rarity":"common","attributes":{"luck":59,"power":63,"wisdom":48,"agility":51},"owner":{"id":1,"username":"Unknown"}},{"id":31644,"tokenId":"10402","collectionName":"Mutant Ape Yacht Club","name":"Mutant Ape #402","description":"Mutant Ape Yacht Club NFT #402. Редкость: common. Уникальный цифровой актив на блокчейне.","imagePath":"/mutant_ape_nft/mutant_ape_30459.png","price":"46.50","forSale":true,"ownerId":1,"rarity":"common","attributes":{"luck":52,"power":61,"wisdom":45,"agility":47},"owner":{"id":1,"username":"Unknown"}},{"id":32047,"tokenId":"10805","collectionName":"Mutant Ape Yacht Club","name":"Mutant Ape #805","description":"Mutant Ape Yacht Club NFT #805. Редкость: common. Уникальный цифровой актив на блокчейне.","imagePath":"/mutant_ape_nft/mutant_ape_2197.png","price":"46.51","forSale":true,"ownerId":1,"rarity":"common","attributes":{"luck":50,"power":55,"wisdom":43,"agility":44},"owner":{"id":1,"username":"Unknown"}},{"id":31284,"tokenId":"10042","collectionName":"Mutant Ape Yacht Club","name":"Mutant Ape #42","description":"Mutant Ape Yacht Club NFT #42. Редкость: common. Уникальный цифровой актив на блокчейне.","imagePath":"/mutant_ape_nft/mutant_ape_0048.png","price":"46.55","forSale":true,"ownerId":1,"rarity":"common","attributes":{"luck":58,"power":66,"wisdom":47,"agility":50},"owner":{"id":1,"username":"Unknown"}},{"id":32180,"tokenId":"10938","collectionName":"Mutant Ape Yacht Club","name":"Mutant Ape #938","description":"Mutant Ape Yacht Club NFT #938. Редкость: common. Уникальный цифровой актив на блокчейне.","imagePath":"/mutant_ape_nft/mutant_ape_29213.png","price":"46.56","forSale":true,"ownerId":1,"rarity":"common","attributes":{"luck":59,"power":62,"wisdom":38,"agility":44},"owner":{"id":1,"username":"Unknown"}},{"id":32164,"tokenId":"10922","collectionName":"Mutant Ape Yacht Club","name":"Mutant Ape #922","description":"Mutant Ape Yacht Club NFT #922. Редкость: common. Уникальный цифровой актив на блокчейне.","imagePath":"/mutant_ape_nft/mutant_ape_28570.png","price":"46.62","forSale":true,"ownerId":1,"rarity":"common","attributes":{"luck":62,"power":70,"wisdom":48,"agility":54},"owner":{"id":1,"username":"Unknown"}}],"pagination":{"page":1,"limit":50,"totalItems":1000,"totalPages":20},"filters":{"sortBy":"price","sortOrder":"asc","collection":"mutant"}}